INTERRUPT_DRIVER/.Xil/Vivado-18008-MSI970-Station/hw_ila_data_1/zip_work/waveform.vcd
$date
        2018-Nov-11 14:39:26
$end
$version
        Vivado v2018.2 (64-bit)
$end
$timescale
        1ps
$end
$scope module dut $end
$var reg 3 " VISION_i/system_ila_0/inst/probe0_1 [2:0] $end
$var reg 1 % VISION_i/system_ila_0/inst/probe1_1 $end
$var reg 1 & VISION_i/system_ila_0/inst/probe2_1 $end
$var reg 1 ' VISION_i/system_ila_0/inst/probe3_1 $end
$var reg 1 ( VISION_i/system_ila_0/inst/probe4_1 $end
$var reg 1 ) VISION_i/system_ila_0/inst/probe5_1 $end
$var reg 1 * VISION_i/system_ila_0/inst/probe6_1 $end
$var reg 1 + VISION_i/system_ila_0/inst/probe7_1 $end
$var reg 1 , VISION_i/system_ila_0/inst/SLOT_0_BRAM_en_1 $end
$var reg 1 - VISION_i/system_ila_0/inst/SLOT_0_BRAM_rst_1 $end
$var reg 32 . VISION_i/system_ila_0/inst/SLOT_0_BRAM_dout_1 [31:0] $end
$var reg 32 N VISION_i/system_ila_0/inst/SLOT_0_BRAM_addr_1 [31:0] $end
$var reg 1 n VISION_i/system_ila_0/inst/SLOT_1_BRAM_en_1 $end
$var reg 1 o VISION_i/system_ila_0/inst/SLOT_1_BRAM_rst_1 $end
$var reg 32 p VISION_i/system_ila_0/inst/SLOT_1_BRAM_dout_1 [31:0] $end
$var reg 32 2" VISION_i/system_ila_0/inst/SLOT_1_BRAM_addr_1 [31:0] $end
$var reg 1 R" _TRIGGER $end
$var reg 1 S" _WINDOW $end
$var reg 1 T" _GAP $end
$upscope $end
$enddefinitions $end
#0
$dumpvars
b0 "
1%
0&
0'
0(
0)
1*
0+
1,
0-
b0 .
b11111111111111111111111000101 N
1n
0o
b11000000000000000000000000000000 p
b0 2"
0R"
1S"
0T"
$end
#1
b11111111111111111111111111111111 p
#29
0,
#30
1,
b11000000000111111111111111111111 p
#31
b11111111111111111111111111111111 p
#286
b11000000000111111111111111111111 p
#287
b11111111111111111111111111111111 p
#541
0,
#542
1,
b11000000000111111111111111111111 p
#543
b11111111111111111111111111111111 p
#798
b11000000000111111111111111111111 p
#799
b11111111111111111111111111111111 p
#1053
0,
#1054
1,
b11000000000111111111111111111111 p
#1055
b11111111111111111111111111111111 p
#1310
b11000000000111111111111111111111 p
#1311
b11111111111111111111111111111111 p
#1565
0,
#1566
1,
b11000000000111111111111111111111 p
#1567
b11111111111111111111111111111111 p
#1822
b11000000000111111111111111111111 p
#1823
b11111111111111111111111111111111 p
#2077
0,
#2078
1,
b11000000000111111111111111111111 p
#2079
b11111111111111111111111111111111 p
#2334
b11000000000111111111111111111111 p
#2335
b11111111111111111111111111111111 p
#2589
0,
#2590
1,
b11000000000111111111111111111111 p
#2591
b11111111111111111111111111111111 p
#2846
b11000000000111111111111111111111 p
#2847
b11111111111111111111111111111111 p
#3101
0,
b11000000000111111111111111111111 p
#3102
1,
b11111111111111111111111111111111 p
#3165
0,
#3166
1,
#3229
0,
b11000000000111111111111111111111 p
#3230
1,
b11111111111111111111111111111111 p
#3293
0,
#3294
1,
#3357
0,
b11000000000111111111111111111111 p
#3358
1,
b11111111111111111111111111111111 p
#3421
0,
#3422
1,
#3485
0,
b11000000000111111111111111111111 p
#3486
1,
b11111111111111111111111111111111 p
#3549
0,
#3550
1,
#3613
0,
b11000000000111111111111111111111 p
#3614
1,
b11111111111111111111111111111111 p
#3677
0,
#3678
1,
#3741
0,
b11000000000111111111111111111111 p
#3742
1,
b11111111111111111111111111111111 p
#3805
0,
#3806
1,
#3869
0,
b11000000000111111111111111111111 p
#3870
1,
b11111111111111111111111111111111 p
#3933
0,
#3934
1,
#3997
0,
b11000000000111111111111111111111 p
#3998
1,
b11111111111111111111111111111111 p
#4061
0,
#4062
1,
#4125
0,
b11000000000111111111111111111111 p
#4126
1,
b11111111111111111111111111111111 p
#4189
0,
#4190
1,
#4253
0,
b11000000000111111111111111111111 p
#4254
1,
b11111111111111111111111111111111 p
#4317
0,
#4318
1,
#4381
0,
b11000000000111111111111111111111 p
#4382
1,
b11111111111111111111111111111111 p
#4445
0,
#4446
1,
#4509
0,
b11000000000111111111111111111111 p
#4510
1,
b11111111111111111111111111111111 p
#4573
0,
#4574
1,
#4637
0,
b11000000000111111111111111111111 p
#4638
1,
b11111111111111111111111111111111 p
#4701
0,
#4702
1,
#4765
0,
b11000000000111111111111111111111 p
#4766
1,
b11111111111111111111111111111111 p
#4829
0,
#4830
1,
#4893
0,
b11000000000111111111111111111111 p
#4894
1,
b11111111111111111111111111111111 p
#4957
0,
#4958
1,
#5021
0,
b11000000000111111111111111111111 p
#5022
1,
b11111111111111111111111111111111 p
#5085
0,
#5086
1,
#5149
0,
b11000000000111111111111111111111 p
#5150
1,
b11111111111111111111111111111111 p
#5213
0,
#5214
1,
#5277
0,
b11000000000111111111111111111111 p
#5278
1,
b11111111111111111111111111111111 p
#5341
0,
#5342
1,
#5405
0,
b11000000000111111111111111111111 p
#5406
1,
b11111111111111111111111111111111 p
#5469
0,
#5470
1,
#5533
0,
b11000000000111111111111111111111 p
#5534
1,
b11111111111111111111111111111111 p
#5597
0,
#5598
1,
#5661
0,
b11000000000111111111111111111111 p
#5662
1,
b11111111111111111111111111111111 p
#5725
0,
#5726
1,
#5789
0,
b11000000000111111111111111111111 p
#5790
1,
b11111111111111111111111111111111 p
#5853
0,
#5854
1,
#5917
0,
b11000000000111111111111111111111 p
#5918
1,
b11111111111111111111111111111111 p
#5981
0,
#5982
1,
#6045
0,
b11000000000111111111111111111111 p
#6046
1,
b11111111111111111111111111111111 p
#6109
0,
#6110
1,
#6173
0,
b11000000000111111111111111111111 p
#6174
1,
b11111111111111111111111111111111 p
#6237
0,
#6238
1,
#6301
0,
b11000000000111111111111111111111 p
#6302
1,
b11111111111111111111111111111111 p
#6365
0,
#6366
1,
#6429
0,
b11000000000111111111111111111111 p
#6430
1,
b11111111111111111111111111111111 p
#6493
0,
#6494
1,
#6557
0,
b11000000000111111111111111111111 p
#6558
1,
b11111111111111111111111111111111 p
#6621
0,
#6622
1,
#6685
0,
b11000000000111111111111111111111 p
#6686
1,
b11111111111111111111111111111111 p
#6749
0,
#6750
1,
#6813
0,
b11000000000111111111111111111111 p
#6814
1,
b11111111111111111111111111111111 p
#6877
0,
#6878
1,
#6941
0,
b11000000000111111111111111111111 p
#6942
1,
b11111111111111111111111111111111 p
#7005
0,
#7006
1,
#7069
0,
b11000000000111111111111111111111 p
#7070
1,
b11111111111111111111111111111111 p
#7133
0,
#7134
1,
#7197
b11111111110000000001111000101 N
b11000000000111111111111111111111 p
#7199
b11111111111111111111111000101 N
b11111111111111111111111111111111 p
#7200
b11000000000111111111111111111111 p
#7201
b11111111111111111111111111111111 p
#7202
b11000000000111111111111111111111 p
#7203
b11111111111111111111111111111111 p
#7204
b11000000000111111111111111111111 p
#7205
b11111111111111111111111111111111 p
#7206
b11000000000111111111111111111111 p
#7207
b11111111111111111111111111111111 p
#7208
b11000000000111111111111111111111 p
#7209
b11111111111111111111111111111111 p
#7210
b11000000000111111111111111111111 p
#7211
b11111111111111111111111111111111 p
#7212
b11000000000111111111111111111111 p
#7213
b11111111111111111111111111111111 p
#7214
b11000000000111111111111111111111 p
#7215
b11111111111111111111111111111111 p
#7216
b11000000000111111111111111111111 p
#7217
b11111111111111111111111111111111 p
#7218
b11000000000111111111111111111111 p
#7219
b11111111111111111111111111111111 p
#7220
b11000000000111111111111111111111 p
#7221
b11111111111111111111111111111111 p
#7222
b11000000000111111111111111111111 p
#7223
b11111111111111111111111111111111 p
#7224
b11000000000111111111111111111111 p
#7225
b11111111111111111111111111111111 p
#7226
b11000000000111111111111111111111 p
#7227
b11111111111111111111111111111111 p
#7228
b11000000000111111111111111111111 p
#7229
b11111111111111111111111111111111 p
#7230
b11000000000111111111111111111111 p
#7231
b11111111111111111111111111111111 p
#7232
b11000000000111111111111111111111 p
#7233
b11111111111111111111111111111111 p
#7234
b11000000000111111111111111111111 p
#7235
b11111111111111111111111111111111 p
#7236
b11000000000111111111111111111111 p
#7237
b11111111111111111111111111111111 p
#7238
b11000000000111111111111111111111 p
#7239
b11111111111111111111111111111111 p
#7240
b11000000000111111111111111111111 p
#7241
b11111111111111111111111111111111 p
#7242
b11000000000111111111111111111111 p
#7243
b11111111111111111111111111111111 p
#7244
b11000000000111111111111111111111 p
#7245
b11111111111111111111111111111111 p
#7246
b11000000000111111111111111111111 p
#7247
b11111111111111111111111111111111 p
#7248
b11000000000111111111111111111111 p
#7249
b11111111111111111111111111111111 p
#7250
b11000000000111111111111111111111 p
#7251
b11111111111111111111111111111111 p
#7252
b11000000000111111111111111111111 p
#7253
b11111111111111111111111111111111 p
#7254
b11000000000111111111111111111111 p
#7255
b11111111111111111111111111111111 p
#7256
b11000000000111111111111111111111 p
#7257
b11111111111111111111111111111111 p
#7258
b11000000000111111111111111111111 p
#7259
b11111111111111111111111111111111 p
#7260
b11000000000111111111111111111111 p
#7261
b11111111111111111111111111111111 p
#7262
b11000000000111111111111111111111 p
#7263
b11111111111111111111111111111111 p
#7264
b11000000000111111111111111111111 p
#7265
b11111111111111111111111111111111 p
#7266
b11000000000111111111111111111111 p
#7267
b11111111111111111111111111111111 p
#7268
b11000000000111111111111111111111 p
#7269
b11111111111111111111111111111111 p
#7270
b11000000000111111111111111111111 p
#7271
b11111111111111111111111111111111 p
#7272
b11000000000111111111111111111111 p
#7273
b11111111111111111111111111111111 p
#7274
b11000000000111111111111111111111 p
#7275
b11111111111111111111111111111111 p
#7276
b11000000000111111111111111111111 p
#7277
b11111111111111111111111111111111 p
#7278
b11000000000111111111111111111111 p
#7279
b11111111111111111111111111111111 p
#7280
b11000000000111111111111111111111 p
#7281
b11111111111111111111111111111111 p
#7282
b11000000000111111111111111111111 p
#7283
b11111111111111111111111111111111 p
#7284
b11000000000111111111111111111111 p
#7285
b11111111111111111111111111111111 p
#7286
b11000000000111111111111111111111 p
#7287
b11111111111111111111111111111111 p
#7288
b11000000000111111111111111111111 p
#7289
b11111111111111111111111111111111 p
#7290
b11000000000111111111111111111111 p
#7291
b11111111111111111111111111111111 p
#7292
b11000000000111111111111111111111 p
#7293
b11111111111111111111111111111111 p
#7294
b11000000000111111111111111111111 p
#7295
b11111111111111111111111111111111 p
#7296
b11000000000111111111111111111111 p
#7297
b11111111111111111111111111111111 p
#7298
b11000000000111111111111111111111 p
#7299
b11111111111111111111111111111111 p
#7300
b11000000000111111111111111111111 p
#7301
b11111111111111111111111111111111 p
#7302
b11000000000111111111111111111111 p
#7303
b11111111111111111111111111111111 p
#7304
b11000000000111111111111111111111 p
#7305
b11111111111111111111111111111111 p
#7306
b11000000000111111111111111111111 p
#7307
b11111111111111111111111111111111 p
#7308
b11000000000111111111111111111111 p
#7309
b11111111111111111111111111111111 p
#7310
b11000000000111111111111111111111 p
#7311
b11111111111111111111111111111111 p
#7312
b11000000000111111111111111111111 p
#7313
b11111111111111111111111111111111 p
#7314
b11000000000111111111111111111111 p
#7315
b11111111111111111111111111111111 p
#7316
b11000000000111111111111111111111 p
#7317
b11111111111111111111111111111111 p
#7318
b11000000000111111111111111111111 p
#7319
b11111111111111111111111111111111 p
#7320
b11000000000111111111111111111111 p
#7321
b11111111111111111111111111111111 p
#7322
b11000000000111111111111111111111 p
#7323
b11111111111111111111111111111111 p
#7324
b11000000000111111111111111111111 p
#7325
b11111111111111111111111111111111 p
#7326
b11111111110000000001111000101 N
b11000000000111111111111111111111 p
#7327
b11111111111111111111111000101 N
b11111111111111111111111111111111 p
#7328
b11000000000111111111111111111111 p
#7329
b11111111111111111111111111111111 p
#7330
b11000000000111111111111111111111 p
#7331
b11111111111111111111111111111111 p
#7332
b11000000000111111111111111111111 p
#7333
b11111111111111111111111111111111 p
#7334
b11000000000111111111111111111111 p
#7335
b11111111111111111111111111111111 p
#7336
b11000000000111111111111111111111 p
#7337
b11111111111111111111111111111111 p
#7338
b11000000000111111111111111111111 p
#7339
b11111111111111111111111111111111 p
#7340
b11000000000111111111111111111111 p
#7341
b11111111111111111111111111111111 p
#7342
b11000000000111111111111111111111 p
#7343
b11111111111111111111111111111111 p
#7344
b11000000000111111111111111111111 p
#7345
b11111111111111111111111111111111 p
#7346
b11000000000111111111111111111111 p
#7347
b11111111111111111111111111111111 p
#7348
b11000000000111111111111111111111 p
#7349
b11111111111111111111111111111111 p
#7350
b11000000000111111111111111111111 p
#7351
b11111111111111111111111111111111 p
#7352
b11000000000111111111111111111111 p
#7353
b11111111111111111111111111111111 p
#7354
b11000000000111111111111111111111 p
#7355
b11111111111111111111111111111111 p
#7356
b11000000000111111111111111111111 p
#7357
b11111111111111111111111111111111 p
#7358
b11000000000111111111111111111111 p
#7359
b11111111111111111111111111111111 p
#7360
b11000000000111111111111111111111 p
#7361
b11111111111111111111111111111111 p
#7362
b11000000000111111111111111111111 p
#7363
b11111111111111111111111111111111 p
#7364
b11000000000111111111111111111111 p
#7365
b11111111111111111111111111111111 p
#7366
b11000000000111111111111111111111 p
#7367
b11111111111111111111111111111111 p
#7368
b11000000000111111111111111111111 p
#7369
b11111111111111111111111111111111 p
#7370
b11000000000111111111111111111111 p
#7371
b11111111111111111111111111111111 p
#7372
b11000000000111111111111111111111 p
#7373
b11111111111111111111111111111111 p
#7374
b11000000000111111111111111111111 p
#7375
b11111111111111111111111111111111 p
#7376
b11000000000111111111111111111111 p
#7377
b11111111111111111111111111111111 p
#7378
b11000000000111111111111111111111 p
#7379
b11111111111111111111111111111111 p
#7380
b11000000000111111111111111111111 p
#7381
b11111111111111111111111111111111 p
#7382
b11000000000111111111111111111111 p
#7383
b11111111111111111111111111111111 p
#7384
b11000000000111111111111111111111 p
#7385
b11111111111111111111111111111111 p
#7386
b11000000000111111111111111111111 p
#7387
b11111111111111111111111111111111 p
#7388
b11000000000111111111111111111111 p
#7389
b11111111111111111111111111111111 p
#7390
b11000000000111111111111111111111 p
#7391
b11111111111111111111111111111111 p
#7392
b11000000000111111111111111111111 p
#7393
b11111111111111111111111111111111 p
#7394
b11000000000111111111111111111111 p
#7395
b11111111111111111111111111111111 p
#7396
b11000000000111111111111111111111 p
#7397
b11111111111111111111111111111111 p
#7398
b11000000000111111111111111111111 p
#7399
b11111111111111111111111111111111 p
#7400
b11000000000111111111111111111111 p
#7401
b11111111111111111111111111111111 p
#7402
b11000000000111111111111111111111 p
#7403
b11111111111111111111111111111111 p
#7404
b11000000000111111111111111111111 p
#7405
b11111111111111111111111111111111 p
#7406
b11000000000111111111111111111111 p
#7407
b11111111111111111111111111111111 p
#7408
b11000000000111111111111111111111 p
#7409
b11111111111111111111111111111111 p
#7410
b11000000000111111111111111111111 p
#7411
b11111111111111111111111111111111 p
#7412
b11000000000111111111111111111111 p
#7413
b11111111111111111111111111111111 p
#7414
b11000000000111111111111111111111 p
#7415
b11111111111111111111111111111111 p
#7416
b11000000000111111111111111111111 p
#7417
b11111111111111111111111111111111 p
#7418
b11000000000111111111111111111111 p
#7419
b11111111111111111111111111111111 p
#7420
b11000000000111111111111111111111 p
#7421
b11111111111111111111111111111111 p
#7422
b11000000000111111111111111111111 p
#7423
b11111111111111111111111111111111 p
#7424
b11000000000111111111111111111111 p
#7425
b11111111111111111111111111111111 p
#7426
b11000000000111111111111111111111 p
#7427
b11111111111111111111111111111111 p
#7428
b11000000000111111111111111111111 p
#7429
b11111111111111111111111111111111 p
#7430
b11000000000111111111111111111111 p
#7431
b11111111111111111111111111111111 p
#7432
b11000000000111111111111111111111 p
#7433
b11111111111111111111111111111111 p
#7434
b11000000000111111111111111111111 p
#7435
b11111111111111111111111111111111 p
#7436
b11000000000111111111111111111111 p
#7437
b11111111111111111111111111111111 p
#7438
b11000000000111111111111111111111 p
#7439
b11111111111111111111111111111111 p
#7440
b11000000000111111111111111111111 p
#7441
b11111111111111111111111111111111 p
#7442
b11000000000111111111111111111111 p
#7443
b11111111111111111111111111111111 p
#7444
b11000000000111111111111111111111 p
#7445
b11111111111111111111111111111111 p
#7446
b11000000000111111111111111111111 p
#7447
b11111111111111111111111111111111 p
#7448
b11000000000111111111111111111111 p
#7449
b11111111111111111111111111111111 p
#7450
b11000000000111111111111111111111 p
#7451
b11111111111111111111111111111111 p
#7452
b11000000000111111111111111111111 p
#7453
b11111111111111111111111111111111 p
#7454
b11111111110000000001111000101 N
b11000000000111111111111111111111 p
#7455
b11111111111111111111111000101 N
b11111111111111111111111111111111 p
#7456
b11000000000111111111111111111111 p
#7457
b11111111111111111111111111111111 p
#7458
b11000000000111111111111111111111 p
#7459
b11111111111111111111111111111111 p
#7460
b11000000000111111111111111111111 p
#7461
b11111111111111111111111111111111 p
#7462
b11000000000111111111111111111111 p
#7463
b11111111111111111111111111111111 p
#7464
b11000000000111111111111111111111 p
#7465
b11111111111111111111111111111111 p
#7466
b11000000000111111111111111111111 p
#7467
b11111111111111111111111111111111 p
#7468
b11000000000111111111111111111111 p
#7469
b11111111111111111111111111111111 p
#7470
b11000000000111111111111111111111 p
#7471
b11111111111111111111111111111111 p
#7472
b11000000000111111111111111111111 p
#7473
b11111111111111111111111111111111 p
#7474
b11000000000111111111111111111111 p
#7475
b11111111111111111111111111111111 p
#7476
b11000000000111111111111111111111 p
#7477
b11111111111111111111111111111111 p
#7478
b11000000000111111111111111111111 p
#7479
b11111111111111111111111111111111 p
#7480
b11000000000111111111111111111111 p
#7481
b11111111111111111111111111111111 p
#7482
b11000000000111111111111111111111 p
#7483
b11111111111111111111111111111111 p
#7484
b11000000000111111111111111111111 p
#7485
b11111111111111111111111111111111 p
#7486
b11000000000111111111111111111111 p
#7487
b11111111111111111111111111111111 p
#7488
b11000000000111111111111111111111 p
#7489
b11111111111111111111111111111111 p
#7490
b11000000000111111111111111111111 p
#7491
b11111111111111111111111111111111 p
#7492
b11000000000111111111111111111111 p
#7493
b11111111111111111111111111111111 p
#7494
b11000000000111111111111111111111 p
#7495
b11111111111111111111111111111111 p
#7496
b11000000000111111111111111111111 p
#7497
b11111111111111111111111111111111 p
#7498
b11000000000111111111111111111111 p
#7499
b11111111111111111111111111111111 p
#7500
b11000000000111111111111111111111 p
#7501
b11111111111111111111111111111111 p
#7502
b11000000000111111111111111111111 p
#7503
b11111111111111111111111111111111 p
#7504
b11000000000111111111111111111111 p
#7505
b11111111111111111111111111111111 p
#7506
b11000000000111111111111111111111 p
#7507
b11111111111111111111111111111111 p
#7508
b11000000000111111111111111111111 p
#7509
b11111111111111111111111111111111 p
#7510
b11000000000111111111111111111111 p
#7511
b11111111111111111111111111111111 p
#7512
b11000000000111111111111111111111 p
#7513
b11111111111111111111111111111111 p
#7514
b11000000000111111111111111111111 p
#7515
b11111111111111111111111111111111 p
#7516
b11000000000111111111111111111111 p
#7517
b11111111111111111111111111111111 p
#7518
b11000000000111111111111111111111 p
#7519
b11111111111111111111111111111111 p
#7520
b11000000000111111111111111111111 p
#7521
b11111111111111111111111111111111 p
#7522
b11000000000111111111111111111111 p
#7523
b11111111111111111111111111111111 p
#7524
b11000000000111111111111111111111 p
#7525
b11111111111111111111111111111111 p
#7526
b11000000000111111111111111111111 p
#7527
b11111111111111111111111111111111 p
#7528
b11000000000111111111111111111111 p
#7529
b11111111111111111111111111111111 p
#7530
b11000000000111111111111111111111 p
#7531
b11111111111111111111111111111111 p
#7532
b11000000000111111111111111111111 p
#7533
b11111111111111111111111111111111 p
#7534
b11000000000111111111111111111111 p
#7535
b11111111111111111111111111111111 p
#7536
b11000000000111111111111111111111 p
#7537
b11111111111111111111111111111111 p
#7538
b11000000000111111111111111111111 p
#7539
b11111111111111111111111111111111 p
#7540
b11000000000111111111111111111111 p
#7541
b11111111111111111111111111111111 p
#7542
b11000000000111111111111111111111 p
#7543
b11111111111111111111111111111111 p
#7544
b11000000000111111111111111111111 p
#7545
b11111111111111111111111111111111 p
#7546
b11000000000111111111111111111111 p
#7547
b11111111111111111111111111111111 p
#7548
b11000000000111111111111111111111 p
#7549
b11111111111111111111111111111111 p
#7550
b11000000000111111111111111111111 p
#7551
b11111111111111111111111111111111 p
#7552
b11000000000111111111111111111111 p
#7553
b11111111111111111111111111111111 p
#7554
b11000000000111111111111111111111 p
#7555
b11111111111111111111111111111111 p
#7556
b11000000000111111111111111111111 p
#7557
b11111111111111111111111111111111 p
#7558
b11000000000111111111111111111111 p
#7559
b11111111111111111111111111111111 p
#7560
b11000000000111111111111111111111 p
#7561
b11111111111111111111111111111111 p
#7562
b11000000000111111111111111111111 p
#7563
b11111111111111111111111111111111 p
#7564
b11000000000111111111111111111111 p
#7565
b11111111111111111111111111111111 p
#7566
b11000000000111111111111111111111 p
#7567
b11111111111111111111111111111111 p
#7568
b11000000000111111111111111111111 p
#7569
b11111111111111111111111111111111 p
#7570
b11000000000111111111111111111111 p
#7571
b11111111111111111111111111111111 p
#7572
b11000000000111111111111111111111 p
#7573
b11111111111111111111111111111111 p
#7574
b11000000000111111111111111111111 p
#7575
b11111111111111111111111111111111 p
#7576
b11000000000111111111111111111111 p
#7577
b11111111111111111111111111111111 p
#7578
b11000000000111111111111111111111 p
#7579
b11111111111111111111111111111111 p
#7580
b11000000000111111111111111111111 p
#7581
b11111111111111111111111111111111 p
#7582
b11111111110000000001111000101 N
b11000000000111111111111111111111 p
#7583
b11111111111111111111111000101 N
b11111111111111111111111111111111 p
#7584
b11000000000111111111111111111111 p
#7585
b11111111111111111111111111111111 p
#7586
b11000000000111111111111111111111 p
#7587
b11111111111111111111111111111111 p
#7588
b11000000000111111111111111111111 p
#7589
b11111111111111111111111111111111 p
#7590
b11000000000111111111111111111111 p
#7591
b11111111111111111111111111111111 p
#7592
b11000000000111111111111111111111 p
#7593
b11111111111111111111111111111111 p
#7594
b11000000000111111111111111111111 p
#7595
b11111111111111111111111111111111 p
#7596
b11000000000111111111111111111111 p
#7597
b11111111111111111111111111111111 p
#7598
b11000000000111111111111111111111 p
#7599
b11111111111111111111111111111111 p
#7600
b11000000000111111111111111111111 p
#7601
b11111111111111111111111111111111 p
#7602
b11000000000111111111111111111111 p
#7603
b11111111111111111111111111111111 p
#7604
b11000000000111111111111111111111 p
#7605
b11111111111111111111111111111111 p
#7606
b11000000000111111111111111111111 p
#7607
b11111111111111111111111111111111 p
#7608
b11000000000111111111111111111111 p
#7609
b11111111111111111111111111111111 p
#7610
b11000000000111111111111111111111 p
#7611
b11111111111111111111111111111111 p
#7612
b11000000000111111111111111111111 p
#7613
b11111111111111111111111111111111 p
#7614
b11000000000111111111111111111111 p
#7615
b11111111111111111111111111111111 p
#7616
b11000000000111111111111111111111 p
#7617
b11111111111111111111111111111111 p
#7618
b11000000000111111111111111111111 p
#7619
b11111111111111111111111111111111 p
#7620
b11000000000111111111111111111111 p
#7621
b11111111111111111111111111111111 p
#7622
b11000000000111111111111111111111 p
#7623
b11111111111111111111111111111111 p
#7624
b11000000000111111111111111111111 p
#7625
b11111111111111111111111111111111 p
#7626
b11000000000111111111111111111111 p
#7627
b11111111111111111111111111111111 p
#7628
b11000000000111111111111111111111 p
#7629
b11111111111111111111111111111111 p
#7630
b11000000000111111111111111111111 p
#7631
b11111111111111111111111111111111 p
#7632
b11000000000111111111111111111111 p
#7633
b11111111111111111111111111111111 p
#7634
b11000000000111111111111111111111 p
#7635
b11111111111111111111111111111111 p
#7636
b11000000000111111111111111111111 p
#7637
b11111111111111111111111111111111 p
#7638
b11000000000111111111111111111111 p
#7639
b11111111111111111111111111111111 p
#7640
b11000000000111111111111111111111 p
#7641
b11111111111111111111111111111111 p
#7642
b11000000000111111111111111111111 p
#7643
b11111111111111111111111111111111 p
#7644
b11000000000111111111111111111111 p
#7645
b11111111111111111111111111111111 p
#7646
b11000000000111111111111111111111 p
#7647
b11111111111111111111111111111111 p
#7648
b11000000000111111111111111111111 p
#7649
b11111111111111111111111111111111 p
#7650
b11000000000111111111111111111111 p
#7651
b11111111111111111111111111111111 p
#7652
b11000000000111111111111111111111 p
#7653
b11111111111111111111111111111111 p
#7654
b11000000000111111111111111111111 p
#7655
b11111111111111111111111111111111 p
#7656
b11000000000111111111111111111111 p
#7657
b11111111111111111111111111111111 p
#7658
b11000000000111111111111111111111 p
#7659
b11111111111111111111111111111111 p
#7660
b11000000000111111111111111111111 p
#7661
b11111111111111111111111111111111 p
#7662
b11000000000111111111111111111111 p
#7663
b11111111111111111111111111111111 p
#7664
b11000000000111111111111111111111 p
#7665
b11111111111111111111111111111111 p
#7666
b11000000000111111111111111111111 p
#7667
b11111111111111111111111111111111 p
#7668
b11000000000111111111111111111111 p
#7669
b11111111111111111111111111111111 p
#7670
b11000000000111111111111111111111 p
#7671
b11111111111111111111111111111111 p
#7672
b11000000000111111111111111111111 p
#7673
b11111111111111111111111111111111 p
#7674
b11000000000111111111111111111111 p
#7675
b11111111111111111111111111111111 p
#7676
b11000000000111111111111111111111 p
#7677
b11111111111111111111111111111111 p
#7678
b11000000000111111111111111111111 p
#7679
b11111111111111111111111111111111 p
#7680
b11000000000111111111111111111111 p
#7681
b11111111111111111111111111111111 p
#7682
b11000000000111111111111111111111 p
#7683
b11111111111111111111111111111111 p
#7684
b11000000000111111111111111111111 p
#7685
b11111111111111111111111111111111 p
#7686
b11000000000111111111111111111111 p
#7687
b11111111111111111111111111111111 p
#7688
b11000000000111111111111111111111 p
#7689
b11111111111111111111111111111111 p
#7690
b11000000000111111111111111111111 p
#7691
b11111111111111111111111111111111 p
#7692
b11000000000111111111111111111111 p
#7693
b11111111111111111111111111111111 p
#7694
b11000000000111111111111111111111 p
#7695
b11111111111111111111111111111111 p
#7696
b11000000000111111111111111111111 p
#7697
b11111111111111111111111111111111 p
#7698
b11000000000111111111111111111111 p
#7699
b11111111111111111111111111111111 p
#7700
b11000000000111111111111111111111 p
#7701
b11111111111111111111111111111111 p
#7702
b11000000000111111111111111111111 p
#7703
b11111111111111111111111111111111 p
#7704
b11000000000111111111111111111111 p
#7705
b11111111111111111111111111111111 p
#7706
b11000000000111111111111111111111 p
#7707
b11111111111111111111111111111111 p
#7708
b11000000000111111111111111111111 p
#7709
b11111111111111111111111111111111 p
#7710
b11111111110000000001111000101 N
b11000000000111111111111111111111 p
#7711
b11111111111111111111111000101 N
b11111111111111111111111111111111 p
#7712
b11000000000111111111111111111111 p
#7713
b11111111111111111111111111111111 p
#7714
b11000000000111111111111111111111 p
#7715
b11111111111111111111111111111111 p
#7716
b11000000000111111111111111111111 p
#7717
b11111111111111111111111111111111 p
#7718
b11000000000111111111111111111111 p
#7719
b11111111111111111111111111111111 p
#7720
b11000000000111111111111111111111 p
#7721
b11111111111111111111111111111111 p
#7722
b11000000000111111111111111111111 p
#7723
b11111111111111111111111111111111 p
#7724
b11000000000111111111111111111111 p
#7725
b11111111111111111111111111111111 p
#7726
b11000000000111111111111111111111 p
#7727
b11111111111111111111111111111111 p
#7728
b11000000000111111111111111111111 p
#7729
b11111111111111111111111111111111 p
#7730
b11000000000111111111111111111111 p
#7731
b11111111111111111111111111111111 p
#7732
b11000000000111111111111111111111 p
#7733
b11111111111111111111111111111111 p
#7734
b11000000000111111111111111111111 p
#7735
b11111111111111111111111111111111 p
#7736
b11000000000111111111111111111111 p
#7737
b11111111111111111111111111111111 p
#7738
b11000000000111111111111111111111 p
#7739
b11111111111111111111111111111111 p
#7740
b11000000000111111111111111111111 p
#7741
b11111111111111111111111111111111 p
#7742
b11000000000111111111111111111111 p
#7743
b11111111111111111111111111111111 p
#7744
b11000000000111111111111111111111 p
#7745
b11111111111111111111111111111111 p
#7746
b11000000000111111111111111111111 p
#7747
b11111111111111111111111111111111 p
#7748
b11000000000111111111111111111111 p
#7749
b11111111111111111111111111111111 p
#7750
b11000000000111111111111111111111 p
#7751
b11111111111111111111111111111111 p
#7752
b11000000000111111111111111111111 p
#7753
b11111111111111111111111111111111 p
#7754
b11000000000111111111111111111111 p
#7755
b11111111111111111111111111111111 p
#7756
b11000000000111111111111111111111 p
#7757
b11111111111111111111111111111111 p
#7758
b11000000000111111111111111111111 p
#7759
b11111111111111111111111111111111 p
#7760
b11000000000111111111111111111111 p
#7761
b11111111111111111111111111111111 p
#7762
b11000000000111111111111111111111 p
#7763
b11111111111111111111111111111111 p
#7764
b11000000000111111111111111111111 p
#7765
b11111111111111111111111111111111 p
#7766
b11000000000111111111111111111111 p
#7767
b11111111111111111111111111111111 p
#7768
b11000000000111111111111111111111 p
#7769
b11111111111111111111111111111111 p
#7770
b11000000000111111111111111111111 p
#7771
b11111111111111111111111111111111 p
#7772
b11000000000111111111111111111111 p
#7773
b11111111111111111111111111111111 p
#7774
b11000000000111111111111111111111 p
#7775
b11111111111111111111111111111111 p
#7776
b11000000000111111111111111111111 p
#7777
b11111111111111111111111111111111 p
#7778
b11000000000111111111111111111111 p
#7779
b11111111111111111111111111111111 p
#7780
b11000000000111111111111111111111 p
#7781
b11111111111111111111111111111111 p
#7782
b11000000000111111111111111111111 p
#7783
b11111111111111111111111111111111 p
#7784
b11000000000111111111111111111111 p
#7785
b11111111111111111111111111111111 p
#7786
b11000000000111111111111111111111 p
#7787
b11111111111111111111111111111111 p
#7788
b11000000000111111111111111111111 p
#7789
b11111111111111111111111111111111 p
#7790
b11000000000111111111111111111111 p
#7791
b11111111111111111111111111111111 p
#7792
b11000000000111111111111111111111 p
#7793
b11111111111111111111111111111111 p
#7794
b11000000000111111111111111111111 p
#7795
b11111111111111111111111111111111 p
#7796
b11000000000111111111111111111111 p
#7797
b11111111111111111111111111111111 p
#7798
b11000000000111111111111111111111 p
#7799
b11111111111111111111111111111111 p
#7800
b11000000000111111111111111111111 p
#7801
b11111111111111111111111111111111 p
#7802
b11000000000111111111111111111111 p
#7803
b11111111111111111111111111111111 p
#7804
b11000000000111111111111111111111 p
