Vision_Project/.Xil/Vivado-24784-DESKTOP-PTNOPEH/hw_ila_data_1/zip_work/waveform.vcd
$date
        2018-Nov-12 22:16:52
$end
$version
        Vivado v2018.2 (64-bit)
$end
$timescale
        1ps
$end
$scope module dut $end
$var reg 3 " VISION_i/system_ila_0/inst/probe0_1 [2:0] $end
$var reg 1 % VISION_i/system_ila_0/inst/probe1_1 $end
$var reg 1 & VISION_i/system_ila_0/inst/probe2_1 $end
$var reg 1 ' VISION_i/system_ila_0/inst/probe3_1 $end
$var reg 1 ( VISION_i/system_ila_0/inst/probe4_1 $end
$var reg 1 ) VISION_i/system_ila_0/inst/probe5_1 $end
$var reg 1 * VISION_i/system_ila_0/inst/probe6_1 $end
$var reg 1 + VISION_i/system_ila_0/inst/probe7_1 $end
$var reg 11 , VISION_i/system_ila_0/inst/probe8_1 [10:0] $end
$var reg 1 7 VISION_i/system_ila_0/inst/SLOT_0_BRAM_en_1 $end
$var reg 1 8 VISION_i/system_ila_0/inst/SLOT_0_BRAM_rst_1 $end
$var reg 32 9 VISION_i/system_ila_0/inst/SLOT_0_BRAM_dout_1 [31:0] $end
$var reg 32 Y VISION_i/system_ila_0/inst/SLOT_0_BRAM_addr_1 [31:0] $end
$var reg 1 y _TRIGGER $end
$var reg 1 z _WINDOW $end
$var reg 1 { _GAP $end
$upscope $end
$enddefinitions $end
#0
$dumpvars
b100 "
1%
0&
0'
1(
0)
1*
0+
b11111010100 ,
17
08
b0 9
b11111111111111111111111000101 Y
0y
1z
0{
$end
#2
0(
#4
1(
#6
0(
#8
1(
#10
0(
#12
1(
#14
0(
#16
1(
#18
0(
#20
1(
#22
0(
#24
1(
#26
0(
#28
1(
#30
0(
#32
1(
#34
0(
#36
1(
#38
0(
#40
1(
#42
0(
#44
1(
#46
0(
#48
1(
#50
0(
#52
1(
#54
0(
#56
1(
#58
0(
#60
1(
#62
0(
#64
1(
#66
0(
#68
1(
#70
0(
#72
1(
#74
0(
#76
1(
#78
0(
#80
1(
#82
0(
#84
1(
#86
0(
#88
1(
#90
0(
#92
1(
#94
0(
#96
1(
#98
0(
#100
1(
#102
0(
#104
1(
#106
0(
#108
1(
#110
0(
#112
1(
#114
0(
#116
1(
#118
0(
#120
1(
#122
0(
#124
1(
#126
0(
#128
1(
#130
0(
#132
1(
#134
0(
#136
1(
#138
0(
#140
1(
#142
0(
#144
1(
#146
0(
#148
1(
#150
0(
#152
1(
#154
0(
#156
1(
#158
0(
#160
1(
#162
0(
#164
1(
#166
0(
#168
1(
#170
0(
#172
1(
#174
0(
#176
1(
#178
0(
#180
1(
#182
0(
#184
1(
#186
0(
#188
1(
#190
0(
#192
1(
#194
0(
#196
1(
#198
0(
#200
1(
#202
0(
#204
1(
#206
0(
#208
1(
#210
0(
#212
1(
#214
0(
#216
1(
#218
0(
#220
1(
#222
0(
#224
1(
#226
0(
#228
1(
#230
0(
#232
1(
#234
0(
#236
1(
#238
0(
#240
1(
#242
0(
#244
1(
#246
0(
#248
1(
#250
0(
#252
1(
#254
0(
#256
1(
#258
0(
#260
1(
#262
0(
#264
1(
#266
0(
#268
1(
#270
0(
#272
1(
#274
0(
#276
1(
#278
0(
#280
1(
#282
0(
#284
1(
#286
0(
#288
1(
#290
0(
#292
1(
#294
0(
#296
1(
#298
0(
#300
1(
#302
0(
#304
1(
#306
0(
#308
1(
#310
0(
#312
1(
#314
0(
#316
1(
#318
0(
#320
1(
#322
0(
#324
1(
#326
0(
#328
1(
#330
0(
#332
1(
#334
0(
#336
1(
#338
0(
#340
1(
#342
0(
#344
1(
#346
0(
#348
1(
#350
0(
#352
1(
#354
0(
#356
1(
#358
0(
#360
1(
#362
0(
#364
1(
#366
0(
#368
1(
#370
0(
#372
1(
#374
0(
#376
1(
#378
0(
#380
1(
#382
0(
#384
1(
#386
0(
#388
1(
#390
0(
#392
1(
#394
0(
#396
1(
#398
0(
#400
1(
#402
0(
#404
1(
#406
0(
#408
1(
#410
0(
#412
1(
#414
0(
#416
1(
#418
0(
#420
1(
#422
0(
#424
1(
#426
0(
#428
1(
#430
0(
#432
1(
#434
0(
#436
1(
#438
0(
#440
1(
#442
0(
#444
1(
#446
0(
#448
1(
#450
0(
#452
1(
#454
0(
#456
1(
#458
0(
#460
1(
#462
0(
#464
1(
#466
0(
#468
1(
#470
0(
#472
1(
#474
0(
#476
1(
#478
0(
#480
1(
#482
0(
#484
1(
#486
0(
#488
1(
#490
0(
#492
1(
#494
0(
#496
1(
#498
0(
#500
1(
#502
0(
#504
1(
#506
0(
#508
1(
#510
0(
#512
1(
#514
0(
#516
1(
#518
0(
#520
1(
#522
0(
#524
1(
#526
0(
#528
1(
#530
0(
#532
1(
#534
0(
#536
1(
#538
0(
#540
1(
#542
0(
#544
1(
#546
0(
#548
1(
#550
0(
#552
1(
#554
0(
#556
1(
#558
0(
#560
1(
#562
0(
#564
1(
#566
0(
#568
1(
#570
0(
#572
1(
#574
0(
#576
1(
#578
0(
#580
1(
#582
0(
#584
1(
#586
0(
#588
1(
#590
0(
#592
1(
#594
0(
#596
1(
#598
0(
#600
1(
#602
0(
#604
1(
#606
0(
#608
1(
#610
0(
#612
1(
#614
0(
#616
1(
#618
0(
#620
1(
#622
0(
#624
1(
#626
0(
#628
1(
#630
0(
#632
1(
#634
0(
#636
1(
#638
0(
#640
1(
#642
0(
#644
1(
#646
0(
#648
1(
#650
0(
#652
1(
#654
0(
#656
1(
#658
0(
#660
1(
#662
0(
#664
1(
#666
0(
#668
1(
#670
0(
#672
1(
#674
0(
#676
1(
#678
0(
#680
1(
#682
0(
#684
1(
#686
0(
#688
1(
#690
0(
#692
1(
#694
0(
#696
1(
#698
0(
#700
1(
#702
0(
#704
1(
#706
0(
#708
1(
#710
0(
#712
1(
#714
0(
#716
1(
#718
0(
#720
1(
#722
0(
#724
1(
#726
0(
#728
1(
#730
0(
#732
1(
#734
0(
#736
1(
#738
0(
#740
1(
#742
0(
#744
1(
#746
0(
#748
1(
#750
0(
#752
1(
#754
0(
#756
1(
#758
0(
#760
1(
#762
0(
#764
1(
#766
0(
#768
1(
#770
0(
#772
1(
#774
0(
#776
1(
#778
0(
#780
1(
#782
0(
#784
1(
#786
0(
#788
1(
#790
0(
#792
1(
#794
0(
#796
1(
#798
0(
#800
1(
#802
0(
#804
1(
#806
0(
#808
1(
#810
0(
#812
1(
#814
0(
#816
1(
#818
0(
#820
1(
#822
0(
#824
1(
#826
0(
#828
1(
#830
0(
#832
1(
#834
0(
#836
1(
#838
0(
#840
1(
#842
0(
#844
1(
#846
0(
#848
1(
#850
0(
#852
1(
#854
0(
#856
1(
#858
0(
#860
1(
#862
0(
#864
1(
#866
0(
#868
1(
#870
0(
#872
1(
#874
0(
#876
1(
#878
0(
#880
1(
#882
0(
#884
1(
#886
0(
#888
1(
#890
0(
#892
1(
#894
0(
#896
1(
#898
0(
#900
1(
#902
0(
#904
1(
#906
0(
#908
1(
#910
0(
#912
1(
#914
0(
#916
1(
#918
0(
#920
1(
#922
0(
#924
1(
#926
0(
#928
1(
#930
0(
#932
1(
#934
0(
#936
1(
#938
0(
#940
1(
#942
0(
#944
1(
#946
0(
#948
1(
#950
0(
#952
1(
#954
0(
#956
1(
#958
0(
#960
1(
#962
0(
#964
1(
#966
0(
#968
1(
#970
0(
#972
1(
#974
0(
#976
1(
#978
0(
#980
1(
#982
0(
#984
1(
#986
0(
#988
1(
#990
0(
#992
1(
#994
0(
#996
1(
#998
0(
#1000
1(
#1002
0(
#1004
1(
#1006
0(
#1008
1(
#1010
0(
#1012
1(
#1014
0(
#1016
1(
#1018
0(
#1020
1(
#1022
0(
#1024
1(
#1026
0(
#1028
1(
#1030
0(
#1032
1(
#1034
0(
#1036
1(
#1038
0(
#1040
1(
#1042
0(
#1044
1(
#1046
0(
#1048
1(
#1050
0(
#1052
1(
#1054
0(
#1056
1(
#1058
0(
#1060
1(
#1062
0(
#1064
1(
#1066
0(
#1068
1(
#1070
0(
#1072
1(
#1074
0(
#1076
1(
#1078
0(
#1080
1(
#1082
0(
#1084
1(
#1086
0(
#1088
1(
#1090
0(
#1092
1(
#1094
0(
#1096
1(
#1098
0(
#1100
1(
#1102
0(
#1104
1(
#1106
0(
#1108
1(
#1110
0(
#1112
1(
#1114
0(
#1116
1(
#1118
0(
#1120
1(
#1122
0(
#1124
1(
#1126
0(
#1128
1(
#1130
0(
#1132
1(
#1134
0(
#1136
1(
#1138
0(
#1140
1(
#1142
0(
#1144
1(
#1146
0(
#1148
1(
#1150
0(
#1152
1(
#1154
0(
#1156
1(
#1158
0(
#1160
1(
#1162
0(
#1164
1(
#1166
0(
#1168
1(
#1170
0(
#1172
1(
#1174
0(
#1176
1(
#1178
0(
#1180
1(
#1182
0(
#1184
1(
#1186
0(
#1188
1(
#1190
0(
#1192
1(
#1194
0(
#1196
1(
#1198
0(
#1200
1(
#1202
0(
#1204
1(
#1206
0(
#1208
1(
#1210
0(
#1212
1(
#1214
0(
#1216
1(
#1218
0(
#1220
1(
#1222
0(
#1224
1(
#1226
0(
#1228
1(
#1230
0(
#1232
1(
#1234
0(
#1236
1(
#1238
0(
#1240
1(
#1242
0(
#1244
1(
#1246
0(
#1248
1(
#1250
0(
#1252
1(
#1254
0(
#1256
1(
#1258
0(
#1260
1(
#1262
0(
#1264
1(
#1266
0(
#1268
1(
#1270
0(
#1272
1(
#1274
0(
#1276
1(
#1278
0(
#1280
1(
#1282
0(
#1284
1(
#1286
0(
#1288
1(
#1290
0(
#1292
1(
#1294
0(
#1296
1(
#1298
0(
#1300
1(
#1302
0(
#1304
1(
#1306
0(
#1308
1(
#1310
0(
#1312
1(
#1314
0(
#1316
1(
#1318
0(
#1320
1(
#1322
0(
#1324
1(
#1326
0(
#1328
1(
#1330
0(
#1332
1(
#1334
0(
#1336
1(
#1338
0(
#1340
1(
#1342
0(
#1344
1(
#1346
0(
#1348
1(
#1350
0(
#1352
1(
#1354
0(
#1356
1(
#1358
0(
#1360
1(
#1362
0(
#1364
1(
#1366
0(
#1368
1(
#1370
0(
#1372
1(
#1374
0(
#1376
1(
#1378
0(
#1380
1(
#1382
0(
#1384
1(
#1386
0(
#1388
1(
#1390
0(
#1392
1(
#1394
0(
#1396
1(
#1398
0(
#1400
1(
#1402
0(
#1404
1(
#1406
0(
#1408
1(
#1410
0(
#1412
1(
#1414
0(
#1416
1(
#1418
0(
#1420
1(
#1422
0(
#1424
1(
#1426
0(
#1428
1(
#1430
0(
#1432
1(
#1434
0(
#1436
1(
#1438
0(
#1440
1(
#1442
0(
#1444
1(
#1446
0(
#1448
1(
#1450
0(
#1452
1(
#1454
0(
#1456
1(
#1458
0(
#1460
1(
#1462
0(
#1464
1(
#1466
0(
#1468
1(
#1470
0(
#1472
1(
#1474
0(
#1476
1(
#1478
0(
#1480
1(
#1482
0(
#1484
1(
#1486
0(
#1488
1(
#1490
0(
#1492
1(
#1494
0(
#1496
1(
#1498
0(
#1500
1(
#1502
0(
#1504
1(
#1506
0(
#1508
1(
#1510
0(
#1512
1(
#1514
0(
#1516
1(
#1518
0(
#1520
1(
#1522
0(
#1524
1(
#1526
0(
#1528
1(
#1530
0(
#1532
1(
#1534
0(
#1536
1(
#1538
0(
#1540
1(
#1542
0(
#1544
1(
#1546
0(
#1548
1(
#1550
0(
#1552
1(
#1554
0(
#1556
1(
#1558
0(
#1560
1(
#1562
0(
#1564
1(
#1566
0(
#1568
1(
#1570
0(
#1572
1(
#1574
0(
#1576
1(
#1578
0(
#1580
1(
#1582
0(
#1584
1(
#1586
0(
#1588
1(
#1590
0(
#1592
1(
#1594
0(
#1596
1(
#1598
0(
#1600
1(
#1602
0(
#1604
1(
#1606
0(
#1608
1(
#1610
0(
#1612
1(
#1614
0(
#1616
1(
#1618
0(
#1620
1(
#1622
0(
#1624
1(
#1626
0(
#1628
1(
#1630
0(
#1632
1(
#1634
0(
#1636
1(
#1638
0(
#1640
1(
#1642
0(
#1644
1(
#1646
0(
#1648
1(
#1650
0(
#1652
1(
#1654
0(
#1656
1(
#1658
0(
#1660
1(
#1662
0(
#1664
1(
#1666
0(
#1668
1(
#1670
0(
#1672
1(
#1674
0(
#1676
1(
#1678
0(
#1680
1(
#1682
0(
#1684
1(
#1686
0(
#1688
1(
#1690
0(
#1692
1(
#1694
0(
#1696
1(
#1698
0(
#1700
1(
#1702
0(
#1704
1(
#1706
0(
#1708
1(
#1710
0(
#1712
1(
#1714
0(
#1716
1(
#1718
0(
#1720
1(
#1722
0(
#1724
1(
#1726
0(
#1728
1(
#1730
0(
#1732
1(
#1734
0(
#1736
1(
#1738
0(
#1740
1(
#1742
0(
#1744
1(
#1746
0(
#1748
1(
#1750
0(
#1752
1(
#1754
0(
#1756
1(
#1758
0(
#1760
1(
#1762
0(
#1764
1(
#1766
0(
#1768
1(
#1770
0(
#1772
1(
#1774
0(
#1776
1(
#1778
0(
#1780
1(
#1782
0(
#1784
1(
#1786
0(
#1788
1(
#1790
0(
#1792
1(
#1794
0(
#1796
1(
#1798
0(
#1800
1(
#1802
0(
#1804
1(
#1806
0(
#1808
1(
#1810
0(
#1812
1(
#1814
0(
#1816
1(
#1818
0(
#1820
1(
#1822
0(
#1824
1(
#1826
0(
#1828
1(
#1830
0(
#1832
1(
#1834
0(
#1836
1(
#1838
0(
#1840
1(
#1842
0(
#1844
1(
#1846
0(
#1848
1(
#1850
0(
#1852
1(
#1854
0(
#1856
1(
#1858
0(
#1860
1(
#1862
0(
#1864
1(
#1866
0(
#1868
1(
#1870
0(
#1872
1(
#1874
0(
#1876
1(
#1878
0(
#1880
1(
#1882
0(
#1884
1(
#1886
0(
#1888
1(
#1890
0(
#1892
1(
#1894
0(
#1896
1(
#1898
0(
#1900
1(
#1902
0(
#1904
1(
#1906
0(
#1908
1(
#1910
0(
#1912
1(
#1914
0(
#1916
1(
#1918
0(
#1920
1(
#1922
0(
#1924
1(
#1926
0(
#1928
1(
#1930
0(
#1932
1(
#1934
0(
#1936
1(
#1938
0(
#1940
1(
#1942
0(
#1944
1(
#1946
0(
#1948
1(
#1950
0(
#1952
1(
#1954
0(
#1956
1(
#1958
0(
#1960
1(
#1962
0(
#1964
1(
#1966
0(
#1968
1(
#1970
0(
#1972
1(
#1974
0(
#1976
1(
#1978
0(
#1980
1(
#1982
0(
#1984
1(
#1986
0(
#1988
1(
#1990
0(
#1992
1(
#1994
0(
#1996
1(
#1998
0(
#2000
1(
#2002
0(
#2004
1(
#2006
0(
#2008
1(
#2010
0(
#2012
1(
#2014
0(
#2016
1(
#2018
0(
#2020
1(
#2022
0(
#2024
1(
#2026
0(
#2028
1(
#2030
0(
#2032
1(
#2034
0(
#2036
1(
#2038
0(
#2040
1(
#2042
0(
#2044
1(
#2046
0(
#2048
1(
#2050
0(
#2052
1(
#2054
0(
#2056
1(
#2058
0(
#2060
1(
#2062
0(
#2064
1(
#2066
0(
#2068
1(
#2070
0(
#2072
1(
#2074
0(
#2076
1(
#2078
0(
#2080
1(
#2082
0(
#2084
1(
#2086
0(
#2088
1(
#2090
0(
#2092
1(
#2094
0(
#2096
1(
#2098
0(
#2100
1(
#2102
0(
#2104
1(
#2106
0(
#2108
1(
#2110
0(
#2112
1(
#2114
0(
#2116
1(
#2118
0(
#2120
1(
#2122
0(
#2124
1(
#2126
0(
#2128
1(
#2130
0(
#2132
1(
#2134
0(
#2136
1(
#2138
0(
#2140
1(
#2142
0(
#2144
1(
#2146
0(
#2148
1(
#2150
0(
#2152
1(
#2154
0(
#2156
1(
#2158
0(
#2160
1(
#2162
0(
#2164
1(
#2166
0(
#2168
1(
#2170
0(
#2172
1(
#2174
0(
#2176
1(
#2178
0(
#2180
1(
#2182
0(
#2184
1(
#2186
0(
#2188
1(
#2190
0(
#2192
1(
#2194
0(
#2196
1(
#2198
0(
#2200
1(
#2202
0(
#2204
1(
#2206
0(
#2208
1(
#2210
0(
#2212
1(
#2214
0(
#2216
1(
#2218
0(
#2220
1(
#2222
0(
#2224
1(
#2226
0(
#2228
1(
#2230
0(
#2232
1(
#2234
0(
#2236
1(
#2238
0(
#2240
1(
#2242
0(
#2244
1(
#2246
0(
#2248
1(
#2250
0(
#2252
1(
#2254
0(
#2256
1(
#2258
0(
#2260
1(
#2262
0(
#2264
1(
#2266
0(
#2268
1(
#2270
0(
#2272
1(
#2274
0(
#2276
1(
#2278
0(
#2280
1(
#2282
0(
#2284
1(
#2286
0(
#2288
1(
#2290
0(
#2292
1(
#2294
0(
#2296
1(
#2298
0(
#2300
1(
#2302
0(
#2304
1(
#2306
0(
#2308
1(
#2310
0(
#2312
1(
#2314
0(
#2316
1(
#2318
0(
#2320
1(
#2322
0(
#2324
1(
#2326
0(
#2328
1(
#2330
0(
#2332
1(
#2334
0(
#2336
1(
#2338
0(
#2340
1(
#2342
0(
#2344
1(
#2346
0(
#2348
1(
#2350
0(
#2352
1(
#2354
0(
#2356
1(
#2358
0(
#2360
1(
#2362
0(
#2364
1(
#2366
0(
#2368
1(
#2370
0(
#2372
1(
#2374
0(
#2376
1(
#2378
0(
#2380
1(
#2382
0(
#2384
1(
#2386
0(
#2388
1(
#2390
0(
#2392
1(
#2394
0(
#2396
1(
#2398
0(
#2400
1(
#2402
0(
#2404
1(
#2406
0(
#2408
1(
#2410
0(
#2412
1(
#2414
0(
#2416
1(
#2418
0(
#2420
1(
#2422
0(
#2424
1(
#2426
0(
#2428
1(
#2430
0(
#2432
1(
#2434
0(
#2436
1(
#2438
0(
#2440
1(
#2442
0(
#2444
1(
#2446
0(
#2448
1(
#2450
0(
#2452
1(
#2454
0(
#2456
1(
#2458
0(
#2460
1(
#2462
0(
#2464
1(
#2466
0(
#2468
1(
#2470
0(
#2472
1(
#2474
0(
#2476
1(
#2478
0(
#2480
1(
#2482
0(
#2484
1(
#2486
0(
#2488
1(
#2490
0(
#2492
1(
#2494
0(
#2496
1(
#2498
0(
#2500
1(
#2502
0(
#2504
1(
#2506
0(
#2508
1(
#2510
0(
#2512
1(
#2514
0(
#2516
1(
#2518
0(
#2520
1(
#2522
0(
#2524
1(
#2526
0(
#2528
1(
#2530
0(
#2532
1(
#2534
0(
#2536
1(
#2538
0(
#2540
1(
#2542
0(
#2544
1(
#2546
0(
#2548
1(
#2550
0(
#2552
1(
#2554
0(
#2556
1(
#2558
0(
#2560
1(
#2562
0(
#2564
1(
#2566
0(
#2568
1(
#2570
0(
#2572
1(
#2574
0(
#2576
1(
#2578
0(
#2580
1(
#2582
0(
#2584
1(
#2586
0(
#2588
1(
#2590
0(
#2592
1(
#2594
0(
#2596
1(
#2598
0(
#2600
1(
#2602
0(
#2604
1(
#2606
0(
#2608
1(
#2610
0(
#2612
1(
#2614
0(
#2616
1(
#2618
0(
#2620
1(
#2622
0(
#2624
1(
#2626
0(
#2628
1(
#2630
0(
#2632
1(
#2634
0(
#2636
1(
#2638
0(
#2640
1(
#2642
0(
#2644
1(
#2646
0(
#2648
1(
#2650
0(
#2652
1(
#2654
0(
#2656
1(
#2658
0(
#2660
1(
#2662
0(
#2664
1(
#2666
0(
#2668
1(
#2670
0(
#2672
1(
#2674
0(
#2676
1(
#2678
0(
#2680
1(
#2682
0(
#2684
1(
#2686
0(
#2688
1(
#2690
0(
#2692
1(
#2694
0(
#2696
1(
#2698
0(
#2700
1(
#2702
0(
#2704
1(
#2706
0(
#2708
1(
#2710
0(
#2712
1(
#2714
0(
#2716
1(
#2718
0(
#2720
1(
#2722
0(
#2724
1(
#2726
0(
#2728
1(
#2730
0(
#2732
1(
#2734
0(
#2736
1(
#2738
0(
#2740
1(
#2742
0(
#2744
1(
#2746
0(
#2748
1(
#2750
0(
#2752
1(
#2754
0(
#2756
1(
#2758
0(
#2760
1(
#2762
0(
#2764
1(
#2766
0(
#2768
1(
#2770
0(
#2772
1(
#2774
0(
#2776
1(
#2778
0(
#2780
1(
#2782
0(
#2784
1(
#2786
0(
#2788
1(
#2790
0(
#2792
1(
#2794
0(
#2796
1(
#2798
0(
#2800
1(
#2802
0(
#2804
1(
#2806
0(
#2808
1(
#2810
0(
#2812
1(
#2814
0(
#2816
1(
#2818
0(
#2820
1(
#2822
0(
#2824
1(
#2826
0(
#2828
1(
#2830
0(
#2832
1(
#2834
0(
#2836
1(
#2838
0(
#2840
1(
#2842
0(
#2844
1(
#2846
0(
#2848
1(
#2850
0(
#2852
1(
#2854
0(
#2856
1(
#2858
0(
#2860
1(
#2862
0(
#2864
1(
#2866
0(
#2868
1(
#2870
0(
#2872
1(
#2874
0(
#2876
1(
#2878
0(
#2880
1(
#2882
0(
#2884
1(
#2886
0(
#2888
1(
#2890
0(
#2892
1(
#2894
0(
#2896
1(
#2898
0(
#2900
1(
#2902
0(
#2904
1(
#2906
0(
#2908
1(
#2910
0(
#2912
1(
#2914
0(
#2916
1(
#2918
0(
#2920
1(
#2922
0(
#2924
1(
#2926
0(
#2928
1(
#2930
0(
#2932
1(
#2934
0(
#2936
1(
#2938
0(
#2940
1(
#2942
0(
#2944
1(
#2946
0(
#2948
1(
#2950
0(
#2952
1(
#2954
0(
#2956
1(
#2958
0(
#2960
1(
#2962
0(
#2964
1(
#2966
0(
#2968
1(
#2970
0(
#2972
1(
#2974
0(
#2976
1(
#2978
0(
#2980
1(
#2982
0(
#2984
1(
#2986
0(
#2988
1(
#2990
0(
#2992
1(
#2994
0(
#2996
1(
#2998
0(
#3000
1(
#3002
0(
#3004
1(
#3006
0(
#3008
1(
#3010
0(
#3012
1(
#3014
0(
#3016
1(
#3018
0(
#3020
1(
#3022
0(
#3024
1(
#3026
0(
#3028
1(
#3030
0(
#3032
1(
#3034
0(
#3036
1(
#3038
0(
#3040
1(
#3042
0(
#3044
1(
#3046
0(
#3048
1(
#3050
0(
#3052
1(
#3054
0(
#3056
1(
#3058
0(
#3060
1(
#3062
0(
#3064
1(
#3066
0(
#3068
1(
#3070
0(
#3072
1(
#3074
0(
#3076
1(
#3078
0(
#3080
1(
#3082
0(
#3084
1(
#3086
0(
#3088
1(
#3090
0(
#3092
1(
#3094
0(
#3096
1(
#3098
0(
#3100
1(
#3102
0(
#3104
1(
#3106
0(
#3108
1(
#3110
0(
#3112
1(
#3114
0(
#3116
1(
#3118
0(
#3120
1(
#3122
0(
#3124
1(
#3126
0(
#3128
1(
#3130
0(
#3132
1(
#3134
0(
#3136
1(
#3138
0(
#3140
1(
#3142
0(
#3144
1(
#3146
0(
#3148
1(
#3150
0(
#3152
1(
#3154
0(
#3156
1(
#3158
0(
#3160
1(
#3162
0(
#3164
1(
#3166
0(
#3168
1(
#3170
0(
#3172
1(
#3174
0(
#3176
1(
#3178
0(
#3180
1(
#3182
0(
#3184
1(
#3186
0(
#3188
1(
#3190
0(
#3192
1(
#3194
0(
#3196
1(
#3198
0(
#3200
1(
#3202
0(
#3204
1(
#3206
0(
#3208
1(
#3210
0(
#3212
1(
#3214
0(
#3216
1(
#3218
0(
#3220
1(
#3222
0(
#3224
1(
#3226
0(
#3228
1(
#3230
0(
#3232
1(
#3234
0(
#3236
1(
#3238
0(
#3240
1(
#3242
0(
#3244
1(
#3246
0(
#3248
1(
#3250
0(
#3252
1(
#3254
0(
#3256
1(
#3258
0(
#3260
1(
#3262
0(
#3264
1(
#3266
0(
#3268
1(
#3270
0(
#3272
1(
#3274
0(
#3276
1(
#3278
0(
#3280
1(
#3282
0(
#3284
1(
#3286
0(
#3288
1(
#3290
0(
#3292
1(
#3294
0(
#3296
1(
#3298
0(
#3300
1(
#3302
0(
#3304
1(
#3306
0(
#3308
1(
#3310
0(
#3312
1(
#3314
0(
#3316
1(
#3318
0(
#3320
1(
#3322
0(
#3324
1(
#3326
0(
#3328
1(
#3330
0(
#3332
1(
#3334
0(
#3336
1(
#3338
0(
#3340
1(
#3342
0(
#3344
1(
#3346
0(
#3348
1(
#3350
0(
#3352
1(
#3354
0(
#3356
1(
#3358
0(
#3360
1(
#3362
0(
#3364
1(
#3366
0(
#3368
1(
#3370
0(
#3372
1(
#3374
0(
#3376
1(
#3378
0(
#3380
1(
#3382
0(
#3384
1(
#3386
0(
#3388
1(
#3390
0(
#3392
1(
#3394
0(
#3396
1(
#3398
0(
#3400
1(
#3402
0(
#3404
1(
#3406
0(
#3408
1(
#3410
0(
#3412
1(
#3414
0(
#3416
1(
#3418
0(
#3420
1(
#3422
0(
#3424
1(
#3426
0(
#3428
1(
#3430
0(
#3432
1(
#3434
0(
#3436
1(
#3438
0(
#3440
1(
#3442
0(
#3444
1(
#3446
0(
#3448
1(
#3450
0(
#3452
1(
#3454
0(
#3456
1(
#3458
0(
#3460
1(
#3462
0(
#3464
1(
#3466
0(
#3468
1(
#3470
0(
#3472
1(
#3474
0(
#3476
1(
#3478
0(
#3480
1(
#3482
0(
#3484
1(
#3486
0(
#3488
1(
#3490
0(
#3492
1(
#3494
0(
#3496
1(
#3498
0(
#3500
1(
#3502
0(
#3504
1(
#3506
0(
#3508
1(
#3510
0(
#3512
1(
#3514
0(
#3516
1(
#3518
0(
#3520
1(
#3522
0(
#3524
1(
#3526
0(
#3528
1(
#3530
0(
#3532
1(
#3534
0(
#3536
1(
#3538
0(
#3540
1(
#3542
0(
#3544
1(
#3546
0(
#3548
1(
#3550
0(
#3552
1(
#3554
0(
#3556
1(
#3558
0(
#3560
1(
#3562
0(
#3564
1(
#3566
0(
#3568
1(
#3570
0(
#3572
1(
#3574
0(
#3576
1(
#3578
0(
#3580
1(
#3582
0(
#3584
1(
#3586
0(
#3588
1(
#3590
0(
#3592
1(
#3594
0(
#3596
1(
#3598
0(
#3600
1(
#3602
0(
#3604
1(
#3606
0(
#3608
1(
#3610
0(
#3612
1(
#3614
0(
#3616
1(
#3618
0(
#3620
1(
#3622
0(
#3624
1(
#3626
0(
#3628
1(
#3630
0(
#3632
1(
#3634
0(
#3636
1(
#3638
0(
#3640
1(
#3642
0(
#3644
1(
#3646
0(
#3648
1(
#3650
0(
#3652
1(
#3654
0(
#3656
1(
#3658
0(
#3660
1(
#3662
0(
#3664
1(
#3666
0(
#3668
1(
#3670
0(
#3672
1(
#3674
0(
#3676
1(
#3678
0(
#3680
1(
#3682
0(
#3684
1(
#3686
0(
#3688
1(
#3690
0(
#3692
1(
#3694
0(
#3696
1(
#3698
0(
#3700
1(
#3702
0(
#3704
1(
#3706
0(
#3708
1(
#3710
0(
#3712
1(
#3714
0(
#3716
1(
#3718
0(
#3720
1(
#3722
0(
#3724
1(
#3726
0(
#3728
1(
#3730
0(
#3732
1(
#3734
0(
#3736
1(
#3738
0(
#3740
1(
#3742
0(
#3744
1(
#3746
0(
#3748
1(
#3750
0(
#3752
1(
#3754
0(
#3756
1(
#3758
0(
#3760
1(
#3762
0(
#3764
1(
#3766
0(
#3768
1(
#3770
0(
#3772
1(
#3774
0(
#3776
1(
#3778
0(
#3780
1(
#3782
0(
#3784
1(
#3786
0(
#3788
1(
#3790
0(
#3792
1(
#3794
0(
#3796
1(
#3798
0(
#3800
1(
#3802
0(
#3804
1(
#3806
0(
#3808
1(
#3810
0(
#3812
1(
#3814
0(
#3816
1(
#3818
0(
#3820
1(
#3822
0(
#3824
1(
#3826
0(
#3828
1(
#3830
0(
#3832
1(
#3834
0(
#3836
1(
#3838
0(
#3840
1(
#3842
0(
#3844
1(
#3846
0(
#3848
1(
#3850
0(
#3852
1(
#3854
0(
#3856
1(
#3858
0(
#3860
1(
#3862
0(
#3864
1(
#3866
0(
#3868
1(
#3870
0(
#3872
1(
#3874
0(
#3876
1(
#3878
0(
#3880
1(
#3882
0(
#3884
1(
#3886
0(
#3888
1(
#3890
0(
#3892
1(
#3894
0(
#3896
1(
#3898
0(
#3900
1(
#3902
0(
#3904
1(
#3906
0(
#3908
1(
#3910
0(
#3912
1(
#3914
0(
#3916
1(
#3918
0(
#3920
1(
#3922
0(
#3924
1(
#3926
0(
#3928
1(
#3930
0(
#3932
1(
#3934
0(
#3936
1(
#3938
0(
#3940
1(
#3942
0(
#3944
1(
#3946
0(
#3948
1(
#3950
0(
#3952
1(
#3954
0(
#3956
1(
#3958
0(
#3960
1(
#3962
0(
#3964
1(
#3966
0(
#3968
1(
#3970
0(
#3972
1(
#3974
0(
#3976
1(
#3978
0(
#3980
1(
#3982
0(
#3984
1(
#3986
0(
#3988
1(
#3990
0(
#3992
1(
#3994
0(
#3996
1(
#3998
0(
#4000
1(
#4002
0(
#4004
1(
#4006
0(
#4008
1(
#4010
0(
#4012
1(
#4014
0(
#4016
1(
#4018
0(
#4020
1(
#4022
0(
#4024
1(
#4026
0(
#4028
1(
#4030
0(
#4032
1(
#4034
0(
#4036
1(
#4038
0(
#4040
1(
#4042
0(
#4044
1(
#4046
0(
#4048
1(
#4050
0(
#4052
1(
#4054
0(
#4056
1(
#4058
0(
#4060
1(
#4062
0(
#4064
1(
#4066
0(
#4068
1(
#4070
0(
#4072
1(
#4074
0(
#4076
1(
#4078
0(
#4080
1(
#4082
0(
#4084
1(
#4086
0(
#4088
1(
#4090
0(
#4092
1(
#4094
0(
#4096
1(
#4098
0(
#4100
1(
#4102
0(
#4104
1(
#4106
0(
#4108
1(
#4110
0(
#4112
1(
#4114
0(
#4116
1(
#4118
0(
#4120
1(
#4122
0(
#4124
1(
#4126
0(
#4128
1(
#4130
0(
#4132
1(
#4134
0(
#4136
1(
#4138
0(
#4140
1(
#4142
0(
#4144
1(
#4146
0(
#4148
1(
#4150
0(
#4152
1(
#4154
0(
#4156
1(
#4158
0(
#4160
1(
#4162
0(
#4164
1(
#4166
0(
#4168
1(
#4170
0(
#4172
1(
#4174
0(
#4176
1(
#4178
0(
#4180
1(
#4182
0(
#4184
1(
#4186
0(
#4188
1(
#4190
0(
#4192
1(
#4194
0(
#4196
1(
#4198
0(
#4200
1(
#4202
0(
#4204
1(
#4206
0(
